…
The skip=1 option is there as the real data table only starts in Row 2, so we need to skip one row.

na = "***" option informs R how missing observations in the spreadsheet are coded. When looking at the spreadsheet, you can see that missing data is coded as "***". It is best to specify this here, as otherwise some of the data is not recognized as numeric data.

For each month and year, the dataframe “weather” shows the deviation of temperature from the normal (expected). Further the dataframe is in wide format.

You have two objectives in this section:

Select the year and the twelve month variables from the weather dataset. We do not need the others (J-D, D-N, DJF, etc.) for this assignment. Hint: use select() function.

weather %>% 
  select(1:13) 

## # A tibble: 142 × 13
##     Year   Jan   Feb   Mar   Apr   May   Jun   Jul   Aug   Sep   Oct   Nov   Dec
##    <dbl> <dbl> <dbl> <dbl> <dbl> <dbl> <dbl> <dbl> <dbl> <dbl> <dbl> <dbl> <dbl>
##  1  1880 -0.34 -0.5  -0.22 -0.29 -0.05 -0.15 -0.17 -0.25 -0.22 -0.31 -0.42 -0.39
##  2  1881 -0.3  -0.21 -0.03  0.01  0.04 -0.32  0.09 -0.03 -0.25 -0.42 -0.36 -0.22
##  3  1882  0.27  0.22  0.02 -0.31 -0.24 -0.29 -0.27 -0.14 -0.24 -0.52 -0.32 -0.68
##  4  1883 -0.57 -0.65 -0.15 -0.3  -0.25 -0.11 -0.05 -0.22 -0.33 -0.16 -0.44 -0.14
##  5  1884 -0.16 -0.1  -0.64 -0.59 -0.35 -0.41 -0.44 -0.5  -0.44 -0.44 -0.57 -0.46
##  6  1885 -1    -0.44 -0.23 -0.48 -0.58 -0.44 -0.34 -0.41 -0.4  -0.37 -0.38 -0.11
##  7  1886 -0.74 -0.83 -0.72 -0.37 -0.33 -0.37 -0.15 -0.43 -0.33 -0.31 -0.39 -0.22
##  8  1887 -1.08 -0.7  -0.44 -0.38 -0.25 -0.2  -0.24 -0.54 -0.21 -0.49 -0.27 -0.43
##  9  1888 -0.49 -0.61 -0.64 -0.22 -0.15 -0.03 -0.01 -0.21 -0.2  -0.04 -0.01 -0.24
## 10  1889 -0.28  0.29 -0.02  0.16 -0.04 -0.07 -0.09 -0.21 -0.3  -0.42 -0.62 -0.54
## # … with 132 more rows

Convert the dataframe from wide to ‘long’ format. Hint: use gather() or pivot_longer() function. Name the new dataframe as tidyweather, name the variable containing the name of the month as month, and the temperature deviation values as delta.

tidyweather <- weather %>% 
             select(1:13) %>% 
            pivot_longer(cols=2:13,
             names_to="Month",
             values_to = "delta")
tidyweather

## # A tibble: 1,704 × 3
##     Year Month delta
##    <dbl> <chr> <dbl>
##  1  1880 Jan   -0.34
##  2  1880 Feb   -0.5 
##  3  1880 Mar   -0.22
##  4  1880 Apr   -0.29
##  5  1880 May   -0.05
##  6  1880 Jun   -0.15
##  7  1880 Jul   -0.17
##  8  1880 Aug   -0.25
##  9  1880 Sep   -0.22
## 10  1880 Oct   -0.31
## # … with 1,694 more rows
…
Turn degree from a character variable into a factor variable. Make sure the order is the correct one and that levels are not sorted alphabetically which is what R by default does.

gss_combined <- gss_combined %>%
  mutate(degree = factor(degree, levels = c("Lt high school", "High School", "Junior college", "Bachelor", "Graduate")))%>%
  arrange(degree)

Create a new variable, bachelor_graduate that is Yes if the respondent has either a Bachelor or Graduate degree. As before, if the recorded value for either was NA, the value in your new variable should also be NA.

gss_combined <- gss_combined %>% 
  mutate(bachelor_graduate = if_else(degree %in% c("Bachelor", "Graduate"), "Yes", if_else(degree %in% c("Lt high school", "High School", "Junior college"), "No", "NA")))

gss_combined

## # A tibble: 2,867 × 10
##    emailmin emailhr snapchat instagrm twitter sex    degree         snap_insta_temp…
##    <chr>    <chr>      <dbl>    <dbl> <chr>   <chr>  <fct>                     <dbl>
##  1 30       0              0        0 No      Male   Lt high school                0
##  2 0        1             NA       NA NA      Female Lt high school               NA
##  3 NA       NA             0        1 No      Female Lt high school                1
##  4 0        1              1        1 No      Female Lt high school                2
##  5 NA       NA            NA       NA NA      Female Lt high school               NA
##  6 45       0             NA       NA NA      Female Lt high school               NA
##  7 NA       NA             0        1 No      Male   Lt high school                1
##  8 20       0             NA       NA NA      Female Lt high school               NA
##  9 NA       NA            NA       NA NA      Female Lt high school               NA
## 10 NA       NA            NA       NA NA      Female Lt high school               NA
## # … with 2,857 more rows, and 2 more variables: snap_insta <dbl>,
## #   bachelor_graduate <chr>
…
Email usage

Can we estimate the population parameter on time spent on email weekly?

Create a new variable called email that combines emailhr and emailmin to reports the number of minutes the respondents spend on email weekly.

gss_combined <- gss_combined %>%
          mutate(emailmin = as.numeric(emailmin))%>%
          mutate(emailhr = as.numeric(emailhr))%>%
          mutate(email = emailmin + emailhr*60)

gss_combined

## # A tibble: 2,867 × 11
##    emailmin emailhr snapchat instagrm twitter sex    degree         snap_insta_temp…
##       <dbl>   <dbl>    <dbl>    <dbl> <chr>   <chr>  <fct>                     <dbl>
##  1       30       0        0        0 No      Male   Lt high school                0
##  2        0       1       NA       NA NA      Female Lt high school               NA
##  3       NA      NA        0        1 No      Female Lt high school                1
##  4        0       1        1        1 No      Female Lt high school                2
##  5       NA      NA       NA       NA NA      Female Lt high school               NA
##  6       45       0       NA       NA NA      Female Lt high school               NA
##  7       NA      NA        0        1 No      Male   Lt high school                1
##  8       20       0       NA       NA NA      Female Lt high school               NA
##  9       NA      NA       NA       NA NA      Female Lt high school               NA
## 10       NA      NA       NA       NA NA      Female Lt high school               NA
## # … with 2,857 more rows, and 3 more variables: snap_insta <dbl>,
## #   bachelor_graduate <chr>, email <dbl>
…
          mutate(week=week(mdy(enddate))-3) %>%
          group_by(week) %>%
          select(!enddate) %>%
          select(!startdate) %>%
          mutate(net_approval= approve - disapprove)%>%
          select(!approve)%>%
          select(!disapprove)%>%
          select(!multiversions) %>%
          select(!tracking)%>%
          select(!adjusted_approve)%>%
          select(!adjusted_disapprove)%>%
          select(!timestamp)
approval_weeks

## # A tibble: 1,598 × 15
## # Groups:   week [33]
##    president  subgroup  modeldate pollster    grade samplesize population weight
##    <chr>      <chr>     <chr>     <chr>       <chr>      <dbl> <chr>       <dbl>
##  1 Joseph R.… All polls 9/14/2021 Gallup      B+          906  a           1.31 
##  2 Joseph R.… All polls 9/14/2021 IBD/TIPP    A+         1261  a           2.36 
##  3 Joseph R.… All polls 9/14/2021 Rasmussen … B          1500  lv          0.192
##  4 Joseph R.… All polls 9/14/2021 HarrisX     B+          945  rv          1.02 
##  5 Joseph R.… All polls 9/14/2021 Morning Co… B          6467. a           0.121
##  6 Joseph R.… All polls 9/14/2021 John Zogby… B/C         841  lv          1.12 
##  7 Joseph R.… All polls 9/14/2021 RMG Resear… B-         1200  rv          0.881
##  8 Joseph R.… All polls 9/14/2021 AP-NORC     <NA>       1055  a           1.43 
##  9 Joseph R.… All polls 9/14/2021 Global Str… B/C        1005  rv          0.916
## 10 Joseph R.… All polls 9/14/2021 Quinnipiac… A-         1075  a           1.53 
## # … with 1,588 more rows, and 7 more variables: influence <dbl>, url <chr>,
## #   poll_id <dbl>, question_id <dbl>, createddate <chr>, week <dbl>,
## #   net_approval <dbl>
…
  group_by(week) %>% 

  summarise(count = n(),
            mean = mean(net_approval,na.rm=TRUE),
            SD = sd(net_approval,na.rm=TRUE),
            t_critical = qt(0.975, count-1),
            SE = SD/sqrt(count),
            margin_error= t_critical*SE,
            lower = (mean - margin_error),
            upper =(mean + margin_error))

formula_ci_approval

## # A tibble: 33 × 9
##     week count  mean    SD t_critical    SE margin_error lower upper
##    <dbl> <int> <dbl> <dbl>      <dbl> <dbl>        <dbl> <dbl> <dbl>
##  1     2    52  16.5  7.67       2.01  1.06         2.13  14.4  18.6
##  2     3    37  16.6  8.16       2.03  1.34         2.72  13.9  19.3
##  3     4    50  16.3  7.34       2.01  1.04         2.09  14.3  18.4
##  4     5    50  15.0  7.77       2.01  1.10         2.21  12.8  17.2
##  5     6    53  13.4  7.46       2.01  1.02         2.06  11.3  15.4
##  6     7    49  12.9  7.08       2.01  1.01         2.03  10.9  15.0
##  7     8    43  15.8  7.45       2.02  1.14         2.29  13.5  18.1
##  8     9    57  14.7  9.32       2.00  1.23         2.47  12.3  17.2
##  9    10    47  13.1  8.44       2.01  1.23         2.48  10.6  15.5
## 10    11    42  13.4  8.77       2.02  1.35         2.73  10.7  16.2
## # … with 23 more rows
…
countries <-  wbstats::wb_cachelist$countries

You have to join the 3 dataframes (life_expectancy, worldbank_data, and HIV) into one. You may need to tidy your data first and then perform join operations. Think about what type makes the most sense and explain why you chose it.

tidy_hiv <- hiv %>% 
             select(1:34) %>% 
            pivot_longer(cols=2:34,
             names_to="year",
             values_to = "hiv")%>% 
              drop_na()
tidy_hiv

## # A tibble: 3,301 × 3
##    country     year    hiv
##    <chr>       <chr> <dbl>
##  1 Afghanistan 2009   0.06
##  2 Afghanistan 2010   0.06
##  3 Afghanistan 2011   0.06
##  4 Algeria     1990   0.06
##  5 Algeria     1991   0.06
##  6 Algeria     1992   0.06
##  7 Algeria     1993   0.06
##  8 Algeria     1994   0.06
##  9 Algeria     1995   0.06
## 10 Algeria     1996   0.06
## # … with 3,291 more rows
…
tidy_life_expectancy <- life_expectancy %>%
    select(1:302) %>%
  pivot_longer(2:302,
               names_to="year",
               values_to="life_expectancy") %>%
  drop_na()

tidy_life_expectancy

## # A tibble: 55,528 × 3
##    country     year  life_expectancy
##    <chr>       <chr>           <dbl>
##  1 Afghanistan 1800             28.2
##  2 Afghanistan 1801             28.2
##  3 Afghanistan 1802             28.2
##  4 Afghanistan 1803             28.2
##  5 Afghanistan 1804             28.2
##  6 Afghanistan 1805             28.2
##  7 Afghanistan 1806             28.1
##  8 Afghanistan 1807             28.1
##  9 Afghanistan 1808             28.1
## 10 Afghanistan 1809             28.1
## # … with 55,518 more rows

tidy_worldbank_data <- worldbank_data %>%
  mutate(year = as.character(date)) %>%
  select(!date)
tidy_worldbank_data

## # A tibble: 12,369 × 8
##    iso2c iso3c country NY.GDP.PCAP.KD SE.PRM.NENR SH.DYN.MORT SP.DYN.TFRT.IN
##    <chr> <chr> <chr>            <dbl>       <dbl>       <dbl>          <dbl>
##  1 AW    ABW   Aruba               NA          NA          NA           4.82
##  2 AW    ABW   Aruba               NA          NA          NA           4.66
##  3 AW    ABW   Aruba               NA          NA          NA           4.47
##  4 AW    ABW   Aruba               NA          NA          NA           4.27
##  5 AW    ABW   Aruba               NA          NA          NA           4.06
##  6 AW    ABW   Aruba               NA          NA          NA           3.84
##  7 AW    ABW   Aruba               NA          NA          NA           3.62
##  8 AW    ABW   Aruba               NA          NA          NA           3.42
##  9 AW    ABW   Aruba               NA          NA          NA           3.23
## 10 AW    ABW   Aruba               NA          NA          NA           3.05
## # … with 12,359 more rows, and 1 more variable: year <chr>

We need to understand what join-function to use. Since we already cleaned the data,we want to do a left join with the left data frame being the shortest one, so that we would not have any NAs in the new dataframe.

joined_table <- inner_join(left_join(left_join(tidy_hiv, tidy_worldbank_data, by = c("country" = "country", "year" = "year") ), tidy_life_expectancy, by = c("country" = "country", "year" = "year")), countries, "country" = "country")

joined_table

## # A tibble: 3,117 × 25
##    country     year    hiv iso2c iso3c NY.GDP.PCAP.KD SE.PRM.NENR SH.DYN.MORT
##    <chr>       <chr> <dbl> <chr> <chr>          <dbl>       <dbl>       <dbl>
##  1 Afghanistan 2009   0.06 AF    AFG             488.        NA          91.4
##  2 Afghanistan 2010   0.06 AF    AFG             543.        NA          87.6
##  3 Afghanistan 2011   0.06 AF    AFG             529.        NA          83.9
##  4 Algeria     1990   0.06 DZ    DZA            3572.        85.9        49.5
##  5 Algeria     1991   0.06 DZ    DZA            3444.        87.6        48.1
##  6 Algeria     1992   0.06 DZ    DZA            3424.        88.7        47  
##  7 Algeria     1993   0.06 DZ    DZA            3279.        88.2        45.9
##  8 Algeria     1994   0.06 DZ    DZA            3183.        88.2        44.8
##  9 Algeria     1995   0.06 DZ    DZA            3241.        88.4        43.6
## 10 Algeria     1996   0.06 DZ    DZA            3315.        87.9        42.5
## # … with 3,107 more rows, and 17 more variables: SP.DYN.TFRT.IN <dbl>,
## #   life_expectancy <dbl>, capital_city <chr>, longitude <dbl>, latitude <dbl>,
## #   region_iso3c <chr>, region_iso2c <chr>, region <chr>,
## #   admin_region_iso3c <chr>, admin_region_iso2c <chr>, admin_region <chr>,
## #   income_level_iso3c <chr>, income_level_iso2c <chr>, income_level <chr>,
## #   lending_type_iso3c <chr>, lending_type_iso2c <chr>, lending_type <chr>
…
>We do not see a relationship for Europe&Central America and for Middle East & North Africa. However, we do find that the higher the GDP the lower the fertility rate for all other regions.

Which regions have the most observations with missing HIV data? Generate a bar chart (geom_col()), in descending order.

hiv_na <- hiv %>% 
             select(1:34) %>% 
            pivot_longer(cols=2:34,
             names_to="year",
             values_to = "hiv")
hiv_na_country <- left_join(hiv_na, countries, "country"= "country")
              
hiv_na_country

## # A tibble: 5,082 × 20
##    country     year    hiv iso3c iso2c capital_city longitude latitude region_iso3c
##    <chr>       <chr> <dbl> <chr> <chr> <chr>            <dbl>    <dbl> <chr>       
##  1 Afghanistan 1979     NA AFG   AF    Kabul             69.2     34.5 SAS         
##  2 Afghanistan 1980     NA AFG   AF    Kabul             69.2     34.5 SAS         
##  3 Afghanistan 1981     NA AFG   AF    Kabul             69.2     34.5 SAS         
##  4 Afghanistan 1982     NA AFG   AF    Kabul             69.2     34.5 SAS         
##  5 Afghanistan 1983     NA AFG   AF    Kabul             69.2     34.5 SAS         
##  6 Afghanistan 1984     NA AFG   AF    Kabul             69.2     34.5 SAS         
##  7 Afghanistan 1985     NA AFG   AF    Kabul             69.2     34.5 SAS         
##  8 Afghanistan 1986     NA AFG   AF    Kabul             69.2     34.5 SAS         
##  9 Afghanistan 1987     NA AFG   AF    Kabul             69.2     34.5 SAS         
## 10 Afghanistan 1988     NA AFG   AF    Kabul             69.2     34.5 SAS         
## # … with 5,072 more rows, and 11 more variables: region_iso2c <chr>,
## #   region <chr>, admin_region_iso3c <chr>, admin_region_iso2c <chr>,
## #   admin_region <chr>, income_level_iso3c <chr>, income_level_iso2c <chr>,
## #   income_level <chr>, lending_type_iso3c <chr>, lending_type_iso2c <chr>,
## #   lending_type <chr>
…
>Sub-Saharan Africa and Europe& Central Asia have the highest number of observations with missing HIV data.

How has mortality rate for under 5 changed by region? In each region, find the top 5 countries that have seen the greatest improvement, as well as those 5 countries where mortality rates have had the least improvement or even deterioration.

endpoints <- joined_table %>%
  group_by(country)%>%
  summarise(min_year=min(year), max_year=max(year))

endpoints

## # A tibble: 143 × 3
##    country     min_year max_year
##    <chr>       <chr>    <chr>   
##  1 Afghanistan 2009     2011    
##  2 Algeria     1990     2008    
##  3 Angola      1979     2011    
##  4 Argentina   1979     2011    
##  5 Armenia     1990     2011    
##  6 Australia   1983     2011    
##  7 Austria     1981     2011    
##  8 Azerbaijan  1990     2011    
##  9 Bangladesh  1990     2011    
## 10 Barbados    1979     2011    
## # … with 133 more rows

endpoints <- joined_table %>%
  group_by(country) %>%
  summarise(min_year = min(year), max_year = max(year))

endpoints

## # A tibble: 143 × 3
##    country     min_year max_year
##    <chr>       <chr>    <chr>   
##  1 Afghanistan 2009     2011    
##  2 Algeria     1990     2008    
##  3 Angola      1979     2011    
##  4 Argentina   1979     2011    
##  5 Armenia     1990     2011    
##  6 Australia   1983     2011    
##  7 Austria     1981     2011    
##  8 Azerbaijan  1990     2011    
##  9 Bangladesh  1990     2011    
## 10 Barbados    1979     2011    
## # … with 133 more rows

joiner_min <- left_join(joined_table, endpoints, "country"="country") %>%
  select(country, year, min_year, max_year, SH.DYN.MORT)%>%
  mutate(mortality_origin = ifelse(year == min_year, SH.DYN.MORT, 0))%>%
  select(!year)%>%
  filter(!mortality_origin==0)%>%
  select(!SH.DYN.MORT)

joiner_min

## # A tibble: 139 × 4
##    country     min_year max_year mortality_origin
##    <chr>       <chr>    <chr>               <dbl>
##  1 Afghanistan 2009     2011                 91.4
##  2 Algeria     1990     2008                 49.5
##  3 Argentina   1979     2011                 46.8
##  4 Armenia     1990     2011                 48.9
##  5 Australia   1983     2011                 11.9
##  6 Austria     1981     2011                 15.5
##  7 Azerbaijan  1990     2011                 95.2
##  8 Bangladesh  1990     2011                144. 
##  9 Barbados    1979     2011                 28.6
## 10 Belarus     1990     2011                 15.2
## # … with 129 more rows

joiner_max <- left_join(joined_table, endpoints, "country"="country") %>%
  select(country, year, min_year, max_year, SH.DYN.MORT)%>%
  mutate(mortality_end = ifelse(year == max_year, SH.DYN.MORT, 0))%>%
  select(!year)%>%
  filter(!mortality_end==0)%>%
  select(!SH.DYN.MORT)

joiner_max

## # A tibble: 143 × 4
##    country     min_year max_year mortality_end
##    <chr>       <chr>    <chr>            <dbl>
##  1 Afghanistan 2009     2011              83.9
##  2 Algeria     1990     2008              29.5
##  3 Angola      1979     2011             112. 
##  4 Argentina   1979     2011              13.9
##  5 Armenia     1990     2011              17.6
##  6 Australia   1983     2011               4.5
##  7 Austria     1981     2011               4.2
##  8 Azerbaijan  1990     2011              35  
##  9 Bangladesh  1990     2011              46.1
## 10 Barbados    1979     2011              14.9
## # … with 133 more rows
…
