…
actual_bike <- bike %>%
               filter (year >= 2016) %>%
               group_by(year,month) %>%
               summarise(actual = mean(bikes_hired))

expected_bike <- actual_bike %>%
                 group_by(month) %>%
                 summarise(expected = mean(actual))

comparison_bike <- left_join(actual_bike, expected_bike, by = "month")

comparison_bike

## # A tibble: 67 × 4
## # Groups:   year [6]
##     year month actual expected
##    <dbl> <ord>  <dbl>    <dbl>
##  1  2016 Jan   18914.   19763.
##  2  2016 Feb   20608.   21433.
##  3  2016 Mar   21435    22491.
##  4  2016 Apr   25444.   27392.
##  5  2016 May   32699.   33163.
##  6  2016 Jun   32108.   36618.
##  7  2016 Jul   38336.   37974.
##  8  2016 Aug   37368.   34955.
##  9  2016 Sep   35101.   33994.
## 10  2016 Oct   30488.   29660.
## # … with 57 more rows
…
# load data
brexit_data = read_csv(here::here("data", "brexit_results.csv"))

# transform data into long format, grouping all parties under the same column
brexit_data_long = brexit_data %>%
  select(1:11) %>% 
      pivot_longer(cols=2:5,
      names_to="party",
      values_to = "share")
brexit_data_long

## # A tibble: 2,528 × 9
##    Seat    leave_share born_in_uk  male unemployed degree age_18to24 party share
##    <chr>         <dbl>      <dbl> <dbl>      <dbl>  <dbl>      <dbl> <chr> <dbl>
##  1 Alders…        57.9       83.1  49.9       3.64  13.9        9.41 con_… 50.6 
##  2 Alders…        57.9       83.1  49.9       3.64  13.9        9.41 lab_… 18.3 
##  3 Alders…        57.9       83.1  49.9       3.64  13.9        9.41 ld_2…  8.82
##  4 Alders…        57.9       83.1  49.9       3.64  13.9        9.41 ukip… 17.9 
##  5 Aldrid…        67.8       96.1  48.9       4.55   9.97       7.33 con_… 52.0 
##  6 Aldrid…        67.8       96.1  48.9       4.55   9.97       7.33 lab_… 22.4 
##  7 Aldrid…        67.8       96.1  48.9       4.55   9.97       7.33 ld_2…  3.37
##  8 Aldrid…        67.8       96.1  48.9       4.55   9.97       7.33 ukip… 19.6 
##  9 Altrin…        38.6       90.5  48.9       3.04  28.6        6.44 con_… 53.0 
## 10 Altrin…        38.6       90.5  48.9       3.04  28.6        6.44 lab_… 26.7 
## # … with 2,518 more rows
…
